…
# correct way
cars <- df |> 
  # "take the rownames and turn them into a variable named car_model"
  rownames_to_column(var = "car_model") |>
  # then make the data frame into a tibble class object
  as_tibble()

# no need to use head() to print a tibble - it always prints the first 10 rows and that's it
cars
```

    ## # A tibble: 32 × 12
    ##    car_model     mpg   cyl  disp    hp  drat    wt  qsec    vs    am  gear  carb
    ##    <chr>       <dbl> <dbl> <dbl> <dbl> <dbl> <dbl> <dbl> <dbl> <dbl> <dbl> <dbl>
    ##  1 Mazda RX4    21       6  160    110  3.9   2.62  16.5     0     1     4     4
    ##  2 Mazda RX4 …  21       6  160    110  3.9   2.88  17.0     0     1     4     4
    ##  3 Datsun 710   22.8     4  108     93  3.85  2.32  18.6     1     1     4     1
    ##  4 Hornet 4 D…  21.4     6  258    110  3.08  3.22  19.4     1     0     3     1
    ##  5 Hornet Spo…  18.7     8  360    175  3.15  3.44  17.0     0     0     3     2
    ##  6 Valiant      18.1     6  225    105  2.76  3.46  20.2     1     0     3     1
    ##  7 Duster 360   14.3     8  360    245  3.21  3.57  15.8     0     0     3     4
    ##  8 Merc 240D    24.4     4  147.    62  3.69  3.19  20       1     0     4     2
    ##  9 Merc 230     22.8     4  141.    95  3.92  3.15  22.9     1     0     4     2
    ## 10 Merc 280     19.2     6  168.   123  3.92  3.44  18.3     1     0     4     4
    ## # ℹ 22 more rows
…
``` r
# head(penguins)

# 1.1 
# since the penguins data frame does not have rownames, we can directly make it a tibble
peng <- tibble(penguins)

# 1.2 & 1.3 & 1.4
# we can already read the number of rows and columns and the variable types when we print a tibble
# we can also see the 4th row observation has some missing data, and some others are missing male/female info
peng
```

    ## # A tibble: 344 × 8
    ##    species island    bill_len bill_dep flipper_len body_mass sex     year
    ##    <fct>   <fct>        <dbl>    <dbl>       <int>     <int> <fct>  <int>
    ##  1 Adelie  Torgersen     39.1     18.7         181      3750 male    2007
    ##  2 Adelie  Torgersen     39.5     17.4         186      3800 female  2007
    ##  3 Adelie  Torgersen     40.3     18           195      3250 female  2007
    ##  4 Adelie  Torgersen     NA       NA            NA        NA <NA>    2007
    ##  5 Adelie  Torgersen     36.7     19.3         193      3450 female  2007
    ##  6 Adelie  Torgersen     39.3     20.6         190      3650 male    2007
    ##  7 Adelie  Torgersen     38.9     17.8         181      3625 female  2007
    ##  8 Adelie  Torgersen     39.2     19.6         195      4675 male    2007
    ##  9 Adelie  Torgersen     34.1     18.1         193      3475 <NA>    2007
    ## 10 Adelie  Torgersen     42       20.2         190      4250 <NA>    2007
    ## # ℹ 334 more rows

``` r
# 1.2 alternative: the dim (dimension) function
dim(peng)
```

    ## [1] 344   8

``` r
# 1.3 alternative: selectors (more advanced)
select(peng, where(is.numeric))
```

    ## # A tibble: 344 × 5
    ##    bill_len bill_dep flipper_len body_mass  year
    ##       <dbl>    <dbl>       <int>     <int> <int>
    ##  1     39.1     18.7         181      3750  2007
    ##  2     39.5     17.4         186      3800  2007
    ##  3     40.3     18           195      3250  2007
    ##  4     NA       NA            NA        NA  2007
    ##  5     36.7     19.3         193      3450  2007
    ##  6     39.3     20.6         190      3650  2007
    ##  7     38.9     17.8         181      3625  2007
    ##  8     39.2     19.6         195      4675  2007
    ##  9     34.1     18.1         193      3475  2007
    ## 10     42       20.2         190      4250  2007
    ## # ℹ 334 more rows
…
- Answer: mathematically, a larger `bill_ratio` suggests that `bill_len`
  is relatively larger than `bill_dep`. You can observe this in the
  table with `view(adelie_tbl)`.

``` r
# 3.1
adelie_tbl <- adelie_tbl |>
  mutate(bill_ratio = bill_len / bill_dep)

# 3.2
# largest first = descending 
arrange(adelie_tbl, desc(bill_ratio))
```

    ## # A tibble: 152 × 6
    ##    bill_len bill_dep flipper_len body_mass  year bill_ratio
    ##       <dbl>    <dbl>       <int>     <int> <int>      <dbl>
    ##  1     44.1     18           210      4000  2009       2.45
    ##  2     42.9     17.6         196      4700  2008       2.44
    ##  3     40.9     16.8         191      3700  2008       2.43
    ##  4     45.8     18.9         197      4150  2008       2.42
    ##  5     40.7     17           190      3725  2009       2.39
    ##  6     39.5     16.7         178      3250  2007       2.37
    ##  7     40.2     17           176      3450  2009       2.36
    ##  8     40.6     17.2         187      3475  2009       2.36
    ##  9     37.7     16           183      3075  2009       2.36
    ## 10     40.2     17.1         193      3400  2009       2.35
    ## # ℹ 142 more rows
…
