…
    ## Joining with `by = join_by(Sample_ID)`

``` r
# generalized fold changes (see helpers.R)
fold_changes <- df_tidy |>
  summarize(fold_change = compute_gfc(pick(log10_rel_ab, Condition)))
arrange(fold_changes, desc(fold_change))
```

    ## # A tibble: 135 × 2
    ##    genus                  fold_change
    ##    <chr>                        <dbl>
    ##  1 Fusobacterium                1.53 
    ##  2 Parvimonas                   0.913
    ##  3 Peptostreptococcus           0.834
    ##  4 Hungatella                   0.823
    ##  5 Allisonella                  0.673
    ##  6 Erysipelatoclostridium       0.581
    ##  7 Porphyromonas                0.476
    ##  8 Alloprevotella               0.471
    ##  9 Clostridium_AQ               0.403
    ## 10 Gemella                      0.389
    ## # ℹ 125 more rows

``` r
# with wilcoxon test -> go check out helpers.R for simple wrapper adaptation
results <- df_tidy |>
  summarize(fold_change = compute_gfc(pick(log10_rel_ab, Condition)),
            p_value = compute_wilcoxon(pick(log10_rel_ab, Condition))) |>
  mutate(p_adj = p.adjust(p_value, method="fdr")) |>
  mutate(significant = ifelse(p_adj <= 0.05, TRUE, FALSE)) 
arrange(results, p_adj)
```

    ## # A tibble: 135 × 5
    ##    genus              fold_change  p_value    p_adj significant
    ##    <chr>                    <dbl>    <dbl>    <dbl> <lgl>      
    ##  1 Fusobacterium            1.53  9.69e-17 1.31e-14 TRUE       
    ##  2 Parvimonas               0.913 1.71e-11 1.15e- 9 TRUE       
    ##  3 Peptostreptococcus       0.834 4.13e-10 1.86e- 8 TRUE       
    ##  4 Fusicatenibacter        -0.981 6.68e-10 2.26e- 8 TRUE       
    ##  5 Ventrimonas             -0.886 4.46e- 9 1.20e- 7 TRUE       
    ##  6 Hungatella               0.823 1.39e- 8 2.73e- 7 TRUE       
    ##  7 Roseburia               -1.06  1.41e- 8 2.73e- 7 TRUE       
    ##  8 Porphyromonas            0.476 4.98e- 8 8.41e- 7 TRUE       
    ##  9 Agathobaculum           -0.749 1.25e- 7 1.88e- 6 TRUE       
    ## 10 Anaerostipes            -0.599 5.44e- 6 7.35e- 5 TRUE       
    ## # ℹ 125 more rows
…
``` r
# generalized fold changes (see helpers_day4.R)
fold_changes <- df_tidy |>
  summarize(fold_change = compute_gfc(pick(log10_rel_ab, Condition)))

# with wilcoxon test -> go check out helpers_day4.R for simple wrapper adaptation
results <- df_tidy |>
  summarize(fold_change = compute_gfc(pick(log10_rel_ab, Condition)),
            p_value = compute_wilcoxon(pick(log10_rel_ab, Condition))) |>
  mutate(p_adj = p.adjust(p_value, method="fdr")) |>
  mutate(significant = ifelse(p_adj <= 0.05, TRUE, FALSE)) 
arrange(results, p_adj)
```

    ## # A tibble: 230 × 5
    ##    genus              fold_change     p_value    p_adj significant
    ##    <chr>                    <dbl>       <dbl>    <dbl> <lgl>      
    ##  1 Fusobacterium            0.751 0.000000494 0.000114 TRUE       
    ##  2 Peptostreptococcus       0.776 0.0000141   0.00162  TRUE       
    ##  3 Allisonella              0.683 0.000320    0.0124   TRUE       
    ##  4 Anaerostipes            -0.596 0.000475    0.0124   TRUE       
    ##  5 Anaerotignum             0.895 0.000426    0.0124   TRUE       
    ##  6 CAG-41                  -0.613 0.000376    0.0124   TRUE       
    ##  7 Hungatella               0.681 0.000229    0.0124   TRUE       
    ##  8 Parvimonas               0.673 0.000241    0.0124   TRUE       
    ##  9 Porphyromonas            0.380 0.000486    0.0124   TRUE       
    ## 10 Fournierella             0.587 0.000696    0.0143   TRUE       
    ## # ℹ 220 more rows
…
